8/23/2023 12:13:45 PM, 358.822800, 49.259480, 359.087400
8/23/2023 12:13:45 PM, 358.827800, 49.228670, 359.081800
8/23/2023 12:13:45 PM, 358.819200, 49.130580, 359.078400
8/23/2023 12:13:45 PM, 358.827100, 49.065190, 359.073400
8/23/2023 12:13:45 PM, 358.825200, 49.010570, 359.080100
8/23/2023 12:13:45 PM, 358.830000, 48.979640, 359.080100
8/23/2023 12:13:46 PM, 358.835200, 48.911170, 359.076200
8/23/2023 12:13:46 PM, 358.832700, 48.859230, 359.068200
8/23/2023 12:13:46 PM, 358.831200, 48.810540, 359.066700
8/23/2023 12:13:46 PM, 358.830700, 48.737300, 359.064700
8/23/2023 12:13:46 PM, 358.833900, 48.685710, 359.065400
8/23/2023 12:13:46 PM, 358.830500, 48.638790, 359.061600
8/23/2023 12:13:46 PM, 358.841800, 48.593260, 359.059600
8/23/2023 12:13:47 PM, 358.841500, 48.501030, 359.057000
8/23/2023 12:13:47 PM, 358.835100, 48.398360, 359.062900
8/23/2023 12:13:47 PM, 358.857300, 48.358060, 359.054300
8/23/2023 12:13:47 PM, 358.860600, 48.258220, 359.048900
8/23/2023 12:13:47 PM, 358.858100, 48.206890, 359.052000
8/23/2023 12:13:47 PM, 358.849200, 48.117860, 359.049700
8/23/2023 12:13:47 PM, 358.890900, 48.060560, 359.030900
8/23/2023 12:13:48 PM, 358.871700, 47.989330, 359.019400
8/23/2023 12:13:48 PM, 358.746400, 47.851130, 359.058600
8/23/2023 12:13:48 PM, 357.806300, 47.703950, 359.379800
8/23/2023 12:13:48 PM, 357.338900, 48.225620, 359.526600
8/23/2023 12:13:48 PM, 355.973100, 48.339100, 359.953800
8/23/2023 12:13:48 PM, 352.579800, 49.203800, 359.881000
8/23/2023 12:13:49 PM, 347.896000, 49.167140, 359.940200
8/23/2023 12:13:49 PM, 346.033200, 49.137160, 359.866200
8/23/2023 12:13:49 PM, 344.410900, 49.094790, 359.809600
8/23/2023 12:13:49 PM, 342.722000, 49.012550, 359.852400
8/23/2023 12:13:49 PM, 341.537300, 48.874660, 359.887100
8/23/2023 12:13:49 PM, 340.194200, 48.598750, 359.925300
8/23/2023 12:13:49 PM, 339.253800, 48.405160, 359.904700
8/23/2023 12:13:50 PM, 337.306700, 48.352910, 359.971400
8/23/2023 12:13:50 PM, 334.778800, 48.621300, 0.068786
8/23/2023 12:13:50 PM, 333.853500, 48.535310, 0.129216
8/23/2023 12:13:50 PM, 331.806400, 48.552850, 0.138079
8/23/2023 12:13:50 PM, 329.164500, 48.548620, 0.152683
8/23/2023 12:13:50 PM, 326.594700, 48.487560, 0.133762
8/23/2023 12:13:50 PM, 325.532000, 48.269840, 0.156669
8/23/2023 12:13:51 PM, 324.098100, 48.208690, 0.120654
8/23/2023 12:13:51 PM, 321.443600, 48.098960, 0.071101
8/23/2023 12:13:51 PM, 318.996700, 48.026200, 0.069960
8/23/2023 12:13:51 PM, 316.959800, 47.890750, 0.073318
8/23/2023 12:13:51 PM, 313.311600, 47.793380, 0.026961
8/23/2023 12:13:51 PM, 311.923100, 47.610340, 0.093076
8/23/2023 12:13:52 PM, 310.734700, 47.563770, 0.063201
8/23/2023 12:13:52 PM, 308.872500, 47.541630, 0.062902
8/23/2023 12:13:52 PM, 307.808400, 47.491910, 0.053233
8/23/2023 12:13:52 PM, 307.478400, 46.853510, 0.206423
8/23/2023 12:13:52 PM, 306.562800, 46.414760, 0.209961
8/23/2023 12:13:52 PM, 303.531600, 46.348200, 0.225683
8/23/2023 12:13:52 PM, 301.210900, 46.314630, 0.231318
8/23/2023 12:13:53 PM, 298.906300, 46.421750, 0.111985
8/23/2023 12:13:53 PM, 297.101400, 46.434310, 0.078150
8/23/2023 12:13:53 PM, 295.355400, 46.436200, 0.055513
8/23/2023 12:13:53 PM, 293.339000, 46.242760, 0.031697
8/23/2023 12:13:53 PM, 291.810100, 46.199220, 359.927100
8/23/2023 12:13:53 PM, 289.417800, 46.169210, 359.809100
8/23/2023 12:13:53 PM, 287.244700, 46.163700, 359.683600
8/23/2023 12:13:54 PM, 285.452500, 46.177270, 359.551500
8/23/2023 12:13:54 PM, 283.136100, 46.216190, 359.325300
8/23/2023 12:13:54 PM, 281.604400, 46.285490, 359.178300
8/23/2023 12:13:54 PM, 279.032200, 46.596080, 358.733300
8/23/2023 12:13:54 PM, 277.340900, 47.010660, 358.482300
8/23/2023 12:13:54 PM, 276.058800, 47.685850, 358.027600
8/23/2023 12:13:55 PM, 274.853900, 48.042900, 357.394700
8/23/2023 12:13:55 PM, 273.916400, 49.829720, 356.730100
8/23/2023 12:13:55 PM, 272.138800, 53.644590, 353.401800
8/23/2023 12:13:55 PM, 270.279800, 112.046100, 294.182500
8/23/2023 12:13:55 PM, 270.914100, 210.013900, 195.982000
8/23/2023 12:13:55 PM, 270.539900, 198.541200, 206.836700
8/23/2023 12:13:55 PM, 270.585800, 69.253360, 335.989000
8/23/2023 12:13:56 PM, 271.977200, 51.609610, 353.700000
8/23/2023 12:13:56 PM, 273.133500, 48.747470, 356.295600
8/23/2023 12:13:56 PM, 275.415800, 46.538200, 358.116400
8/23/2023 12:13:56 PM, 276.760600, 45.561200, 358.698500
8/23/2023 12:13:56 PM, 279.202900, 44.783180, 358.943600
8/23/2023 12:13:56 PM, 282.874800, 43.553090, 359.535800
8/23/2023 12:13:57 PM, 287.133500, 43.333320, 359.912400
8/23/2023 12:13:57 PM, 290.914800, 43.872060, 0.083933
8/23/2023 12:13:57 PM, 294.684300, 43.881220, 0.185009
8/23/2023 12:13:57 PM, 297.218200, 44.059050, 0.227319
8/23/2023 12:13:57 PM, 300.003200, 44.348010, 0.309328
8/23/2023 12:13:57 PM, 304.856200, 44.778190, 0.349618
8/23/2023 12:13:57 PM, 307.718400, 44.850830, 0.364200
8/23/2023 12:13:58 PM, 311.322100, 44.741740, 0.318779
8/23/2023 12:13:58 PM, 315.279200, 45.063220, 0.248815
8/23/2023 12:13:58 PM, 319.487700, 45.529460, 0.199342
8/23/2023 12:13:58 PM, 325.707100, 46.284530, 0.136262
8/23/2023 12:13:58 PM, 332.868700, 47.039490, 0.044308
8/23/2023 12:13:58 PM, 339.297000, 47.694670, 359.901700
8/23/2023 12:13:58 PM, 344.422100, 47.519720, 359.826200
8/23/2023 12:13:59 PM, 350.867100, 47.262950, 359.734300
8/23/2023 12:13:59 PM, 355.296400, 46.642500, 359.618700
8/23/2023 12:13:59 PM, 356.382100, 46.139610, 359.381900
8/23/2023 12:13:59 PM, 357.725000, 45.990840, 359.023700
8/23/2023 12:13:59 PM, 358.811700, 45.789070, 358.756700
8/23/2023 12:13:59 PM, 358.823000, 45.647010, 358.815400
8/23/2023 12:14:00 PM, 358.816700, 45.478240, 358.886600
8/23/2023 12:14:00 PM, 358.859500, 51.075230, 358.909400
8/23/2023 12:14:00 PM, 358.959000, 52.260760, 358.963000
8/23/2023 12:14:00 PM, 358.996600, 52.215610, 358.952500
8/23/2023 12:14:00 PM, 359.770100, 52.255970, 359.083200
8/23/2023 12:14:00 PM, 0.381676, 52.094000, 359.662000
8/23/2023 12:14:00 PM, 359.342200, 52.057070, 1.441285
8/23/2023 12:14:01 PM, 355.815100, 51.544930, 3.581399
8/23/2023 12:14:01 PM, 351.941800, 51.236600, 2.907056
8/23/2023 12:14:01 PM, 348.385600, 50.959150, 0.952862
8/23/2023 12:14:01 PM, 350.039900, 50.552500, 3.222078
8/23/2023 12:14:01 PM, 354.822400, 50.620190, 2.329796
8/23/2023 12:14:01 PM, 358.125000, 50.660030, 1.799590
8/23/2023 12:14:01 PM, 359.540100, 52.203520, 353.959500
8/23/2023 12:14:02 PM, 0.001428, 53.893550, 340.664600
8/23/2023 12:14:02 PM, 0.219376, 54.558010, 329.857800
8/23/2023 12:14:02 PM, 1.267885, 54.418250, 320.766800
8/23/2023 12:14:02 PM, 2.429121, 53.651510, 309.391000
8/23/2023 12:14:02 PM, 3.033799, 52.885320, 299.129300
8/23/2023 12:14:02 PM, 3.156073, 51.913880, 289.955300
8/23/2023 12:14:02 PM, 0.730362, 52.236670, 294.652700
8/23/2023 12:14:03 PM, 359.190200, 50.282440, 314.170400
8/23/2023 12:14:03 PM, 359.028900, 50.764100, 332.516400
8/23/2023 12:14:03 PM, 358.117500, 50.724750, 350.103700
8/23/2023 12:14:03 PM, 357.709600, 50.308640, 5.946792
8/23/2023 12:14:03 PM, 358.724900, 49.395760, 22.853200
8/23/2023 12:14:03 PM, 358.190800, 48.357010, 34.279300
8/23/2023 12:14:04 PM, 358.552500, 47.255820, 42.136440
8/23/2023 12:14:04 PM, 359.743400, 45.697380, 47.965810
8/23/2023 12:14:04 PM, 1.210828, 41.893110, 54.932010
8/23/2023 12:14:04 PM, 0.669613, 41.211420, 59.833220
8/23/2023 12:14:04 PM, 359.555900, 40.082950, 66.575080
8/23/2023 12:14:04 PM, 0.447085, 37.799320, 72.339280
8/23/2023 12:14:04 PM, 0.597789, 35.186010, 76.879140
8/23/2023 12:14:05 PM, 359.681500, 33.316260, 79.226770
8/23/2023 12:14:05 PM, 358.769700, 31.414110, 80.717770
8/23/2023 12:14:05 PM, 358.375200, 30.718680, 83.110120
8/23/2023 12:14:05 PM, 355.285100, 28.984330, 84.659810
8/23/2023 12:14:05 PM, 353.978800, 86.316750, 86.291690
8/23/2023 12:14:05 PM, 353.277200, 86.560500, 87.289660
8/23/2023 12:14:06 PM, 354.277400, 88.656880, 85.918300
8/23/2023 12:14:06 PM, 355.265200, 90.868420, 81.538140
8/23/2023 12:14:06 PM, 356.789800, 92.796970, 73.337270
8/23/2023 12:14:06 PM, 356.402100, 94.789900, 66.944940
8/23/2023 12:14:06 PM, 356.124000, 97.289250, 64.609810
8/23/2023 12:14:06 PM, 353.386200, 99.436860, 55.182860
8/23/2023 12:14:06 PM, 351.579400, 103.094300, 42.199230
8/23/2023 12:14:07 PM, 349.324400, 107.582700, 29.101760
8/23/2023 12:14:07 PM, 348.297100, 111.511800, 19.628680
8/23/2023 12:14:07 PM, 347.811100, 115.620300, 9.510716
8/23/2023 12:14:07 PM, 346.970300, 119.284000, 0.063708
8/23/2023 12:14:07 PM, 345.488900, 123.413600, 349.986700
8/23/2023 12:14:07 PM, 343.607900, 126.265100, 340.935100
8/23/2023 12:14:07 PM, 344.865200, 128.120800, 330.879400
8/23/2023 12:14:08 PM, 348.133300, 126.632500, 321.664600
8/23/2023 12:14:08 PM, 350.668000, 123.953900, 310.063900
8/23/2023 12:14:08 PM, 352.114300, 121.644800, 298.704400
8/23/2023 12:14:08 PM, 353.132700, 119.244800, 288.826700
8/23/2023 12:14:08 PM, 353.132000, 118.407200, 280.038900
8/23/2023 12:14:08 PM, 352.501600, 157.844200, 268.717200
8/23/2023 12:14:08 PM, 351.840800, 157.662000, 262.326400
8/23/2023 12:14:09 PM, 351.562000, 158.350100, 259.227000
8/23/2023 12:14:09 PM, 350.770400, 159.424900, 259.526100
8/23/2023 12:14:09 PM, 348.300400, 160.465400, 258.334400
8/23/2023 12:14:09 PM, 346.320400, 160.900700, 259.477800
8/23/2023 12:14:09 PM, 346.009400, 160.539000, 261.003800
8/23/2023 12:14:09 PM, 347.618900, 158.903200, 264.867300
8/23/2023 12:14:10 PM, 348.955100, 158.133100, 272.027800
8/23/2023 12:14:10 PM, 349.843000, 157.447600, 284.182100
8/23/2023 12:14:10 PM, 351.688900, 156.602300, 299.399000
8/23/2023 12:14:10 PM, 353.491900, 156.501100, 317.064800
8/23/2023 12:14:10 PM, 354.351100, 156.741700, 327.747500
8/23/2023 12:14:10 PM, 351.692900, 156.589800, 336.132400
8/23/2023 12:14:10 PM, 347.108700, 155.082500, 342.465100
8/23/2023 12:14:11 PM, 339.408700, 154.880900, 345.061400
8/23/2023 12:14:11 PM, 325.017400, 156.648100, 347.282500
8/23/2023 12:14:11 PM, 304.116300, 160.759600, 348.742900
8/23/2023 12:14:11 PM, 287.089900, 169.482900, 340.143100
8/23/2023 12:14:11 PM, 276.146600, 189.464800, 321.080200
8/23/2023 12:14:11 PM, 278.323400, 320.946700, 190.986600
8/23/2023 12:14:13 PM, 303.210000, 58.750200, 333.946200
8/23/2023 12:14:13 PM, 302.992100, 57.848180, 333.457200
8/23/2023 12:14:13 PM, 301.811900, 57.083550, 334.193300
8/23/2023 12:14:13 PM, 300.853600, 58.192710, 333.240200
8/23/2023 12:14:13 PM, 301.330400, 57.620230, 334.142300
8/23/2023 12:14:14 PM, 300.187100, 56.574590, 336.288600
8/23/2023 12:14:14 PM, 301.421900, 52.209960, 341.188200
8/23/2023 12:14:14 PM, 307.351000, 42.060410, 352.020400
8/23/2023 12:14:14 PM, 314.644200, 39.967070, 354.944900
8/23/2023 12:14:14 PM, 323.556900, 36.364390, 355.127500
8/23/2023 12:14:14 PM, 335.723500, 33.813070, 357.519500
8/23/2023 12:14:15 PM, 349.820600, 32.582390, 358.188400
8/23/2023 12:14:15 PM, 356.878100, 32.808370, 359.694200
8/23/2023 12:14:15 PM, 350.428100, 33.728910, 359.837300
8/23/2023 12:14:15 PM, 333.549500, 34.689900, 358.490700
8/23/2023 12:14:15 PM, 321.405700, 36.349340, 354.426900
8/23/2023 12:14:15 PM, 311.104700, 42.593090, 353.256000
8/23/2023 12:14:15 PM, 300.256000, 41.547830, 355.057700
8/23/2023 12:14:16 PM, 290.703600, 39.386290, 358.862100
8/23/2023 12:14:16 PM, 279.539800, 37.734190, 358.989400
8/23/2023 12:14:16 PM, 274.538900, 40.789700, 353.888900
8/23/2023 12:14:16 PM, 277.384000, 37.480660, 356.724900
8/23/2023 12:14:16 PM, 290.493200, 33.298560, 0.934949
8/23/2023 12:14:16 PM, 304.125200, 32.355960, 1.511896
8/23/2023 12:14:16 PM, 313.450900, 32.136110, 1.210903
8/23/2023 12:14:17 PM, 323.951400, 31.101620, 0.368576
8/23/2023 12:14:17 PM, 328.142900, 30.450670, 1.013820
8/23/2023 12:14:17 PM, 316.907000, 31.496200, 357.536200
8/23/2023 12:14:17 PM, 311.588700, 32.813910, 355.259100
8/23/2023 12:14:17 PM, 306.571700, 34.825600, 352.936800
8/23/2023 12:14:17 PM, 301.821200, 34.431110, 353.059400
8/23/2023 12:14:18 PM, 299.139000, 36.139300, 350.311400
8/23/2023 12:14:18 PM, 300.840800, 46.713590, 345.226100
8/23/2023 12:14:18 PM, 300.065900, 47.675430, 347.021400
8/23/2023 12:14:18 PM, 299.619900, 46.907330, 347.369900
8/23/2023 12:14:18 PM, 299.152300, 45.280070, 347.564500
8/23/2023 12:14:18 PM, 298.889000, 45.241460, 346.839000
8/23/2023 12:14:18 PM, 298.359100, 44.413620, 347.926200
8/23/2023 12:14:19 PM, 298.451100, 43.509400, 348.635400